%YAML 1.1
%TAG !u! tag:unity3d.com,2011:
--- !u!29 &1
SceneSettings:
  m_ObjectHideFlags: 0
  m_PVSData: 
  m_PVSObjectsArray: []
  m_PVSPortalsArray: []
  m_OcclusionBakeSettings:
    smallestOccluder: 5
    smallestHole: 0.25
    backfaceThreshold: 100
--- !u!104 &2
RenderSettings:
  m_ObjectHideFlags: 0
  serializedVersion: 6
  m_Fog: 0
  m_FogColor: {r: 0.5, g: 0.5, b: 0.5, a: 1}
  m_FogMode: 3
  m_FogDensity: 0.01
  m_LinearFogStart: 0
  m_LinearFogEnd: 300
  m_AmbientSkyColor: {r: 0.212, g: 0.227, b: 0.259, a: 1}
  m_AmbientEquatorColor: {r: 0.114, g: 0.125, b: 0.133, a: 1}
  m_AmbientGroundColor: {r: 0.047, g: 0.043, b: 0.035, a: 1}
  m_AmbientIntensity: 1
  m_AmbientMode: 0
  m_SkyboxMaterial: {fileID: 10304, guid: 0000000000000000f000000000000000, type: 0}
  m_HaloStrength: 0.5
  m_FlareStrength: 1
  m_FlareFadeSpeed: 3
  m_HaloTexture: {fileID: 0}
  m_SpotCookie: {fileID: 10001, guid: 0000000000000000e000000000000000, type: 0}
  m_DefaultReflectionMode: 0
  m_DefaultReflectionResolution: 128
  m_ReflectionBounces: 1
  m_ReflectionIntensity: 1
  m_CustomReflection: {fileID: 0}
  m_Sun: {fileID: 0}
--- !u!157 &3
LightmapSettings:
  m_ObjectHideFlags: 0
  serializedVersion: 6
  m_GIWorkflowMode: 0
  m_LightmapsMode: 1
  m_GISettings:
    serializedVersion: 2
    m_BounceScale: 1
    m_IndirectOutputScale: 1
    m_AlbedoBoost: 1
    m_TemporalCoherenceThreshold: 1
    m_EnvironmentLightingMode: 0
    m_EnableBakedLightmaps: 1
    m_EnableRealtimeLightmaps: 1
  m_LightmapEditorSettings:
    serializedVersion: 3
    m_Resolution: 2
    m_BakeResolution: 40
    m_TextureWidth: 1024
    m_TextureHeight: 1024
    m_AOMaxDistance: 1
    m_Padding: 2
    m_CompAOExponent: 0
    m_LightmapParameters: {fileID: 0}
    m_TextureCompression: 1
    m_FinalGather: 0
    m_FinalGatherRayCount: 1024
    m_ReflectionCompression: 2
  m_LightingDataAsset: {fileID: 0}
  m_RuntimeCPUUsage: 25
--- !u!196 &4
NavMeshSettings:
  serializedVersion: 2
  m_ObjectHideFlags: 0
  m_BuildSettings:
    serializedVersion: 2
    agentRadius: 0.5
    agentHeight: 2
    agentSlope: 45
    agentClimb: 0.4
    ledgeDropHeight: 0
    maxJumpAcrossDistance: 0
    accuratePlacement: 0
    minRegionArea: 2
    cellSize: 0.16666667
    manualCellSize: 0
  m_NavMeshData: {fileID: 0}
--- !u!1001 &88912630
Prefab:
  m_ObjectHideFlags: 0
  serializedVersion: 2
  m_Modification:
    m_TransformParent: {fileID: 0}
    m_Modifications:
    - target: {fileID: 455744, guid: 6496aa1a3f413f94c9a03cc783808190, type: 2}
      propertyPath: m_LocalPosition.x
      value: 72
      objectReference: {fileID: 0}
    - target: {fileID: 455744, guid: 6496aa1a3f413f94c9a03cc783808190, type: 2}
      propertyPath: m_LocalPosition.y
      value: -109
      objectReference: {fileID: 0}
    - target: {fileID: 455744, guid: 6496aa1a3f413f94c9a03cc783808190, type: 2}
      propertyPath: m_LocalPosition.z
      value: 0
      objectReference: {fileID: 0}
    - target: {fileID: 455744, guid: 6496aa1a3f413f94c9a03cc783808190, type: 2}
      propertyPath: m_LocalRotation.x
      value: 0
      objectReference: {fileID: 0}
    - target: {fileID: 455744, guid: 6496aa1a3f413f94c9a03cc783808190, type: 2}
      propertyPath: m_LocalRotation.y
      value: 0
      objectReference: {fileID: 0}
    - target: {fileID: 455744, guid: 6496aa1a3f413f94c9a03cc783808190, type: 2}
      propertyPath: m_LocalRotation.z
      value: 0
      objectReference: {fileID: 0}
    - target: {fileID: 455744, guid: 6496aa1a3f413f94c9a03cc783808190, type: 2}
      propertyPath: m_LocalRotation.w
      value: 1
      objectReference: {fileID: 0}
    - target: {fileID: 455744, guid: 6496aa1a3f413f94c9a03cc783808190, type: 2}
      propertyPath: m_RootOrder
      value: 10
      objectReference: {fileID: 0}
    - target: {fileID: 187854, guid: 6496aa1a3f413f94c9a03cc783808190, type: 2}
      propertyPath: m_Name
      value: Hard chunks
      objectReference: {fileID: 0}
    - target: {fileID: 187854, guid: 6496aa1a3f413f94c9a03cc783808190, type: 2}
      propertyPath: m_IsActive
      value: 0
      objectReference: {fileID: 0}
    m_RemovedComponents: []
  m_ParentPrefab: {fileID: 100100000, guid: 6496aa1a3f413f94c9a03cc783808190, type: 2}
  m_IsPrefabParent: 0
--- !u!1001 &118845591
Prefab:
  m_ObjectHideFlags: 0
  serializedVersion: 2
  m_Modification:
    m_TransformParent: {fileID: 0}
    m_Modifications:
    - target: {fileID: 424602, guid: 53a5c30c7de7f974e9c7ad05442e9ea1, type: 2}
      propertyPath: m_LocalPosition.x
      value: 72
      objectReference: {fileID: 0}
    - target: {fileID: 424602, guid: 53a5c30c7de7f974e9c7ad05442e9ea1, type: 2}
      propertyPath: m_LocalPosition.y
      value: -43
      objectReference: {fileID: 0}
    - target: {fileID: 424602, guid: 53a5c30c7de7f974e9c7ad05442e9ea1, type: 2}
      propertyPath: m_LocalPosition.z
      value: 0
      objectReference: {fileID: 0}
    - target: {fileID: 424602, guid: 53a5c30c7de7f974e9c7ad05442e9ea1, type: 2}
      propertyPath: m_LocalRotation.x
      value: 0
      objectReference: {fileID: 0}
    - target: {fileID: 424602, guid: 53a5c30c7de7f974e9c7ad05442e9ea1, type: 2}
      propertyPath: m_LocalRotation.y
      value: 0
      objectReference: {fileID: 0}
    - target: {fileID: 424602, guid: 53a5c30c7de7f974e9c7ad05442e9ea1, type: 2}
      propertyPath: m_LocalRotation.z
      value: 0
      objectReference: {fileID: 0}
    - target: {fileID: 424602, guid: 53a5c30c7de7f974e9c7ad05442e9ea1, type: 2}
      propertyPath: m_LocalRotation.w
      value: 1
      objectReference: {fileID: 0}
    - target: {fileID: 424602, guid: 53a5c30c7de7f974e9c7ad05442e9ea1, type: 2}
      propertyPath: m_RootOrder
      value: 11
      objectReference: {fileID: 0}
    - target: {fileID: 195450, guid: 53a5c30c7de7f974e9c7ad05442e9ea1, type: 2}
      propertyPath: m_Name
      value: Hard chunks
      objectReference: {fileID: 0}
    m_RemovedComponents: []
  m_ParentPrefab: {fileID: 100100000, guid: 53a5c30c7de7f974e9c7ad05442e9ea1, type: 2}
  m_IsPrefabParent: 0
--- !u!1001 &176313538
Prefab:
  m_ObjectHideFlags: 0
  serializedVersion: 2
  m_Modification:
    m_TransformParent: {fileID: 0}
    m_Modifications:
    - target: {fileID: 490092, guid: 942860745ca080746902034bfa5eb5ed, type: 2}
      propertyPath: m_LocalPosition.x
      value: 72
      objectReference: {fileID: 0}
    - target: {fileID: 490092, guid: 942860745ca080746902034bfa5eb5ed, type: 2}
      propertyPath: m_LocalPosition.y
      value: -21
      objectReference: {fileID: 0}
    - target: {fileID: 490092, guid: 942860745ca080746902034bfa5eb5ed, type: 2}
      propertyPath: m_LocalPosition.z
      value: 0
      objectReference: {fileID: 0}
    - target: {fileID: 490092, guid: 942860745ca080746902034bfa5eb5ed, type: 2}
      propertyPath: m_LocalRotation.x
      value: 0
      objectReference: {fileID: 0}
    - target: {fileID: 490092, guid: 942860745ca080746902034bfa5eb5ed, type: 2}
      propertyPath: m_LocalRotation.y
      value: 0
      objectReference: {fileID: 0}
    - target: {fileID: 490092, guid: 942860745ca080746902034bfa5eb5ed, type: 2}
      propertyPath: m_LocalRotation.z
      value: 0
      objectReference: {fileID: 0}
    - target: {fileID: 490092, guid: 942860745ca080746902034bfa5eb5ed, type: 2}
      propertyPath: m_LocalRotation.w
      value: 1
      objectReference: {fileID: 0}
    - target: {fileID: 490092, guid: 942860745ca080746902034bfa5eb5ed, type: 2}
      propertyPath: m_RootOrder
      value: 4
      objectReference: {fileID: 0}
    - target: {fileID: 146906, guid: 942860745ca080746902034bfa5eb5ed, type: 2}
      propertyPath: m_Name
      value: Hard chunks
      objectReference: {fileID: 0}
    - target: {fileID: 146906, guid: 942860745ca080746902034bfa5eb5ed, type: 2}
      propertyPath: m_IsActive
      value: 0
      objectReference: {fileID: 0}
    m_RemovedComponents: []
  m_ParentPrefab: {fileID: 100100000, guid: 942860745ca080746902034bfa5eb5ed, type: 2}
  m_IsPrefabParent: 0
--- !u!1001 &240179150
Prefab:
  m_ObjectHideFlags: 0
  serializedVersion: 2
  m_Modification:
    m_TransformParent: {fileID: 0}
    m_Modifications:
    - target: {fileID: 425780, guid: 8b4dae48f4da26f41b8c504998f52c76, type: 2}
      propertyPath: m_LocalPosition.x
      value: 72
      objectReference: {fileID: 0}
    - target: {fileID: 425780, guid: 8b4dae48f4da26f41b8c504998f52c76, type: 2}
      propertyPath: m_LocalPosition.y
      value: -65
      objectReference: {fileID: 0}
    - target: {fileID: 425780, guid: 8b4dae48f4da26f41b8c504998f52c76, type: 2}
      propertyPath: m_LocalPosition.z
      value: 0
      objectReference: {fileID: 0}
    - target: {fileID: 425780, guid: 8b4dae48f4da26f41b8c504998f52c76, type: 2}
      propertyPath: m_LocalRotation.x
      value: 0
      objectReference: {fileID: 0}
    - target: {fileID: 425780, guid: 8b4dae48f4da26f41b8c504998f52c76, type: 2}
      propertyPath: m_LocalRotation.y
      value: 0
      objectReference: {fileID: 0}
    - target: {fileID: 425780, guid: 8b4dae48f4da26f41b8c504998f52c76, type: 2}
      propertyPath: m_LocalRotation.z
      value: 0
      objectReference: {fileID: 0}
    - target: {fileID: 425780, guid: 8b4dae48f4da26f41b8c504998f52c76, type: 2}
      propertyPath: m_LocalRotation.w
      value: 1
      objectReference: {fileID: 0}
    - target: {fileID: 425780, guid: 8b4dae48f4da26f41b8c504998f52c76, type: 2}
      propertyPath: m_RootOrder
      value: 9
      objectReference: {fileID: 0}
    - target: {fileID: 105228, guid: 8b4dae48f4da26f41b8c504998f52c76, type: 2}
      propertyPath: m_Name
      value: Hard chunks
      objectReference: {fileID: 0}
    - target: {fileID: 105228, guid: 8b4dae48f4da26f41b8c504998f52c76, type: 2}
      propertyPath: m_IsActive
      value: 0
      objectReference: {fileID: 0}
    m_RemovedComponents: []
  m_ParentPrefab: {fileID: 100100000, guid: 8b4dae48f4da26f41b8c504998f52c76, type: 2}
  m_IsPrefabParent: 0
--- !u!1001 &248364314
Prefab:
  m_ObjectHideFlags: 0
  serializedVersion: 2
  m_Modification:
    m_TransformParent: {fileID: 0}
    m_Modifications:
    - target: {fileID: 411484, guid: 7e37aa842ccd81c4b968c7b6620e2171, type: 2}
      propertyPath: m_LocalPosition.x
      value: 72
      objectReference: {fileID: 0}
    - target: {fileID: 411484, guid: 7e37aa842ccd81c4b968c7b6620e2171, type: 2}
      propertyPath: m_LocalPosition.y
      value: -10
      objectReference: {fileID: 0}
    - target: {fileID: 411484, guid: 7e37aa842ccd81c4b968c7b6620e2171, type: 2}
      propertyPath: m_LocalPosition.z
      value: 0
      objectReference: {fileID: 0}
    - target: {fileID: 411484, guid: 7e37aa842ccd81c4b968c7b6620e2171, type: 2}
      propertyPath: m_LocalRotation.x
      value: 0
      objectReference: {fileID: 0}
    - target: {fileID: 411484, guid: 7e37aa842ccd81c4b968c7b6620e2171, type: 2}
      propertyPath: m_LocalRotation.y
      value: 0
      objectReference: {fileID: 0}
    - target: {fileID: 411484, guid: 7e37aa842ccd81c4b968c7b6620e2171, type: 2}
      propertyPath: m_LocalRotation.z
      value: 0
      objectReference: {fileID: 0}
    - target: {fileID: 411484, guid: 7e37aa842ccd81c4b968c7b6620e2171, type: 2}
      propertyPath: m_LocalRotation.w
      value: 1
      objectReference: {fileID: 0}
    - target: {fileID: 411484, guid: 7e37aa842ccd81c4b968c7b6620e2171, type: 2}
      propertyPath: m_RootOrder
      value: 1
      objectReference: {fileID: 0}
    - target: {fileID: 186210, guid: 7e37aa842ccd81c4b968c7b6620e2171, type: 2}
      propertyPath: m_Name
      value: Hard chunks
      objectReference: {fileID: 0}
    - target: {fileID: 186210, guid: 7e37aa842ccd81c4b968c7b6620e2171, type: 2}
      propertyPath: m_IsActive
      value: 0
      objectReference: {fileID: 0}
    m_RemovedComponents: []
  m_ParentPrefab: {fileID: 100100000, guid: 7e37aa842ccd81c4b968c7b6620e2171, type: 2}
  m_IsPrefabParent: 0
--- !u!1001 &630852982
Prefab:
  m_ObjectHideFlags: 0
  serializedVersion: 2
  m_Modification:
    m_TransformParent: {fileID: 0}
    m_Modifications:
    - target: {fileID: 466448, guid: 70d73481a9b3b2348873273b3d3ed1d4, type: 2}
      propertyPath: m_LocalPosition.x
      value: 72
      objectReference: {fileID: 0}
    - target: {fileID: 466448, guid: 70d73481a9b3b2348873273b3d3ed1d4, type: 2}
      propertyPath: m_LocalPosition.y
      value: -32
      objectReference: {fileID: 0}
    - target: {fileID: 466448, guid: 70d73481a9b3b2348873273b3d3ed1d4, type: 2}
      propertyPath: m_LocalPosition.z
      value: 0
      objectReference: {fileID: 0}
    - target: {fileID: 466448, guid: 70d73481a9b3b2348873273b3d3ed1d4, type: 2}
      propertyPath: m_LocalRotation.x
      value: 0
      objectReference: {fileID: 0}
    - target: {fileID: 466448, guid: 70d73481a9b3b2348873273b3d3ed1d4, type: 2}
      propertyPath: m_LocalRotation.y
      value: 0
      objectReference: {fileID: 0}
    - target: {fileID: 466448, guid: 70d73481a9b3b2348873273b3d3ed1d4, type: 2}
      propertyPath: m_LocalRotation.z
      value: 0
      objectReference: {fileID: 0}
    - target: {fileID: 466448, guid: 70d73481a9b3b2348873273b3d3ed1d4, type: 2}
      propertyPath: m_LocalRotation.w
      value: 1
      objectReference: {fileID: 0}
    - target: {fileID: 466448, guid: 70d73481a9b3b2348873273b3d3ed1d4, type: 2}
      propertyPath: m_RootOrder
      value: 2
      objectReference: {fileID: 0}
    - target: {fileID: 103196, guid: 70d73481a9b3b2348873273b3d3ed1d4, type: 2}
      propertyPath: m_Name
      value: Hard chunks
      objectReference: {fileID: 0}
    - target: {fileID: 103196, guid: 70d73481a9b3b2348873273b3d3ed1d4, type: 2}
      propertyPath: m_IsActive
      value: 0
      objectReference: {fileID: 0}
    m_RemovedComponents: []
  m_ParentPrefab: {fileID: 100100000, guid: 70d73481a9b3b2348873273b3d3ed1d4, type: 2}
  m_IsPrefabParent: 0
--- !u!1001 &1108667425
Prefab:
  m_ObjectHideFlags: 0
  serializedVersion: 2
  m_Modification:
    m_TransformParent: {fileID: 0}
    m_Modifications:
    - target: {fileID: 432576, guid: 51378a77b66a1ef42b40cdd60996e636, type: 2}
      propertyPath: m_LocalPosition.x
      value: 72
      objectReference: {fileID: 0}
    - target: {fileID: 432576, guid: 51378a77b66a1ef42b40cdd60996e636, type: 2}
      propertyPath: m_LocalPosition.y
      value: -98
      objectReference: {fileID: 0}
    - target: {fileID: 432576, guid: 51378a77b66a1ef42b40cdd60996e636, type: 2}
      propertyPath: m_LocalPosition.z
      value: 0
      objectReference: {fileID: 0}
    - target: {fileID: 432576, guid: 51378a77b66a1ef42b40cdd60996e636, type: 2}
      propertyPath: m_LocalRotation.x
      value: 0
      objectReference: {fileID: 0}
    - target: {fileID: 432576, guid: 51378a77b66a1ef42b40cdd60996e636, type: 2}
      propertyPath: m_LocalRotation.y
      value: 0
      objectReference: {fileID: 0}
    - target: {fileID: 432576, guid: 51378a77b66a1ef42b40cdd60996e636, type: 2}
      propertyPath: m_LocalRotation.z
      value: 0
      objectReference: {fileID: 0}
    - target: {fileID: 432576, guid: 51378a77b66a1ef42b40cdd60996e636, type: 2}
      propertyPath: m_LocalRotation.w
      value: 1
      objectReference: {fileID: 0}
    - target: {fileID: 432576, guid: 51378a77b66a1ef42b40cdd60996e636, type: 2}
      propertyPath: m_RootOrder
      value: 7
      objectReference: {fileID: 0}
    - target: {fileID: 134228, guid: 51378a77b66a1ef42b40cdd60996e636, type: 2}
      propertyPath: m_Name
      value: Hard chunks
      objectReference: {fileID: 0}
    m_RemovedComponents: []
  m_ParentPrefab: {fileID: 100100000, guid: 51378a77b66a1ef42b40cdd60996e636, type: 2}
  m_IsPrefabParent: 0
--- !u!1001 &1261448789
Prefab:
  m_ObjectHideFlags: 0
  serializedVersion: 2
  m_Modification:
    m_TransformParent: {fileID: 0}
    m_Modifications:
    - target: {fileID: 494586, guid: 320c47fefd8047b4cb8f6c9003da89c8, type: 2}
      propertyPath: m_LocalPosition.x
      value: 72
      objectReference: {fileID: 0}
    - target: {fileID: 494586, guid: 320c47fefd8047b4cb8f6c9003da89c8, type: 2}
      propertyPath: m_LocalPosition.y
      value: -120
      objectReference: {fileID: 0}
    - target: {fileID: 494586, guid: 320c47fefd8047b4cb8f6c9003da89c8, type: 2}
      propertyPath: m_LocalPosition.z
      value: 0
      objectReference: {fileID: 0}
    - target: {fileID: 494586, guid: 320c47fefd8047b4cb8f6c9003da89c8, type: 2}
      propertyPath: m_LocalRotation.x
      value: 0
      objectReference: {fileID: 0}
    - target: {fileID: 494586, guid: 320c47fefd8047b4cb8f6c9003da89c8, type: 2}
      propertyPath: m_LocalRotation.y
      value: 0
      objectReference: {fileID: 0}
    - target: {fileID: 494586, guid: 320c47fefd8047b4cb8f6c9003da89c8, type: 2}
      propertyPath: m_LocalRotation.z
      value: 0
      objectReference: {fileID: 0}
    - target: {fileID: 494586, guid: 320c47fefd8047b4cb8f6c9003da89c8, type: 2}
      propertyPath: m_LocalRotation.w
      value: 1
      objectReference: {fileID: 0}
    - target: {fileID: 494586, guid: 320c47fefd8047b4cb8f6c9003da89c8, type: 2}
      propertyPath: m_RootOrder
      value: 6
      objectReference: {fileID: 0}
    - target: {fileID: 120476, guid: 320c47fefd8047b4cb8f6c9003da89c8, type: 2}
      propertyPath: m_Name
      value: Hard chunks
      objectReference: {fileID: 0}
    - target: {fileID: 120476, guid: 320c47fefd8047b4cb8f6c9003da89c8, type: 2}
      propertyPath: m_IsActive
      value: 0
      objectReference: {fileID: 0}
    m_RemovedComponents: []
  m_ParentPrefab: {fileID: 100100000, guid: 320c47fefd8047b4cb8f6c9003da89c8, type: 2}
  m_IsPrefabParent: 0
--- !u!1001 &1297160559
Prefab:
  m_ObjectHideFlags: 0
  serializedVersion: 2
  m_Modification:
    m_TransformParent: {fileID: 0}
    m_Modifications:
    - target: {fileID: 436216, guid: b2b9e8d80456b094e9e1503ce66cb26f, type: 2}
      propertyPath: m_LocalPosition.x
      value: 72
      objectReference: {fileID: 0}
    - target: {fileID: 436216, guid: b2b9e8d80456b094e9e1503ce66cb26f, type: 2}
      propertyPath: m_LocalPosition.y
      value: 1
      objectReference: {fileID: 0}
    - target: {fileID: 436216, guid: b2b9e8d80456b094e9e1503ce66cb26f, type: 2}
      propertyPath: m_LocalPosition.z
      value: 0
      objectReference: {fileID: 0}
    - target: {fileID: 436216, guid: b2b9e8d80456b094e9e1503ce66cb26f, type: 2}
      propertyPath: m_LocalRotation.x
      value: 0
      objectReference: {fileID: 0}
    - target: {fileID: 436216, guid: b2b9e8d80456b094e9e1503ce66cb26f, type: 2}
      propertyPath: m_LocalRotation.y
      value: 0
      objectReference: {fileID: 0}
    - target: {fileID: 436216, guid: b2b9e8d80456b094e9e1503ce66cb26f, type: 2}
      propertyPath: m_LocalRotation.z
      value: 0
      objectReference: {fileID: 0}
    - target: {fileID: 436216, guid: b2b9e8d80456b094e9e1503ce66cb26f, type: 2}
      propertyPath: m_LocalRotation.w
      value: 1
      objectReference: {fileID: 0}
    - target: {fileID: 436216, guid: b2b9e8d80456b094e9e1503ce66cb26f, type: 2}
      propertyPath: m_RootOrder
      value: 0
      objectReference: {fileID: 0}
    - target: {fileID: 159704, guid: b2b9e8d80456b094e9e1503ce66cb26f, type: 2}
      propertyPath: m_IsActive
      value: 0
      objectReference: {fileID: 0}
    - target: {fileID: 2387966, guid: b2b9e8d80456b094e9e1503ce66cb26f, type: 2}
      propertyPath: m_Materials.Array.data[0]
      value: 
      objectReference: {fileID: 2100000, guid: 0792fd4ace69fef4f96bb487416d91f1, type: 2}
    - target: {fileID: 2364848, guid: b2b9e8d80456b094e9e1503ce66cb26f, type: 2}
      propertyPath: m_Materials.Array.data[0]
      value: 
      objectReference: {fileID: 2100000, guid: 0792fd4ace69fef4f96bb487416d91f1, type: 2}
    - target: {fileID: 2351406, guid: b2b9e8d80456b094e9e1503ce66cb26f, type: 2}
      propertyPath: m_Materials.Array.data[0]
      value: 
      objectReference: {fileID: 2100000, guid: 0792fd4ace69fef4f96bb487416d91f1, type: 2}
    - target: {fileID: 2365896, guid: b2b9e8d80456b094e9e1503ce66cb26f, type: 2}
      propertyPath: m_Materials.Array.data[0]
      value: 
      objectReference: {fileID: 2100000, guid: 4858261b0b529194b8a54b9a2a68f8e7, type: 2}
    - target: {fileID: 2352142, guid: b2b9e8d80456b094e9e1503ce66cb26f, type: 2}
      propertyPath: m_Materials.Array.data[0]
      value: 
      objectReference: {fileID: 2100000, guid: 4858261b0b529194b8a54b9a2a68f8e7, type: 2}
    - target: {fileID: 2353470, guid: b2b9e8d80456b094e9e1503ce66cb26f, type: 2}
      propertyPath: m_Materials.Array.data[0]
      value: 
      objectReference: {fileID: 2100000, guid: 4858261b0b529194b8a54b9a2a68f8e7, type: 2}
    - target: {fileID: 2353854, guid: b2b9e8d80456b094e9e1503ce66cb26f, type: 2}
      propertyPath: m_Materials.Array.data[0]
      value: 
      objectReference: {fileID: 2100000, guid: 4858261b0b529194b8a54b9a2a68f8e7, type: 2}
    - target: {fileID: 2320034, guid: b2b9e8d80456b094e9e1503ce66cb26f, type: 2}
      propertyPath: m_Materials.Array.data[0]
      value: 
      objectReference: {fileID: 2100000, guid: 4858261b0b529194b8a54b9a2a68f8e7, type: 2}
    - target: {fileID: 2338566, guid: b2b9e8d80456b094e9e1503ce66cb26f, type: 2}
      propertyPath: m_Materials.Array.data[0]
      value: 
      objectReference: {fileID: 2100000, guid: 4858261b0b529194b8a54b9a2a68f8e7, type: 2}
    - target: {fileID: 2322390, guid: b2b9e8d80456b094e9e1503ce66cb26f, type: 2}
      propertyPath: m_Materials.Array.data[0]
      value: 
      objectReference: {fileID: 2100000, guid: 4858261b0b529194b8a54b9a2a68f8e7, type: 2}
    - target: {fileID: 2393334, guid: b2b9e8d80456b094e9e1503ce66cb26f, type: 2}
      propertyPath: m_Materials.Array.data[0]
      value: 
      objectReference: {fileID: 2100000, guid: 4858261b0b529194b8a54b9a2a68f8e7, type: 2}
    - target: {fileID: 2364324, guid: b2b9e8d80456b094e9e1503ce66cb26f, type: 2}
      propertyPath: m_Materials.Array.data[0]
      value: 
      objectReference: {fileID: 2100000, guid: 4858261b0b529194b8a54b9a2a68f8e7, type: 2}
    - target: {fileID: 2395052, guid: b2b9e8d80456b094e9e1503ce66cb26f, type: 2}
      propertyPath: m_Materials.Array.data[0]
      value: 
      objectReference: {fileID: 2100000, guid: 4858261b0b529194b8a54b9a2a68f8e7, type: 2}
    - target: {fileID: 2396998, guid: b2b9e8d80456b094e9e1503ce66cb26f, type: 2}
      propertyPath: m_Materials.Array.data[0]
      value: 
      objectReference: {fileID: 2100000, guid: 4858261b0b529194b8a54b9a2a68f8e7, type: 2}
    - target: {fileID: 2363612, guid: b2b9e8d80456b094e9e1503ce66cb26f, type: 2}
      propertyPath: m_Materials.Array.data[0]
      value: 
      objectReference: {fileID: 2100000, guid: 4858261b0b529194b8a54b9a2a68f8e7, type: 2}
    - target: {fileID: 2343766, guid: b2b9e8d80456b094e9e1503ce66cb26f, type: 2}
      propertyPath: m_Materials.Array.data[0]
      value: 
      objectReference: {fileID: 2100000, guid: 4858261b0b529194b8a54b9a2a68f8e7, type: 2}
    - target: {fileID: 2322382, guid: b2b9e8d80456b094e9e1503ce66cb26f, type: 2}
      propertyPath: m_Materials.Array.data[0]
      value: 
      objectReference: {fileID: 2100000, guid: 4858261b0b529194b8a54b9a2a68f8e7, type: 2}
    - target: {fileID: 2321964, guid: b2b9e8d80456b094e9e1503ce66cb26f, type: 2}
      propertyPath: m_Materials.Array.data[0]
      value: 
      objectReference: {fileID: 2100000, guid: 4858261b0b529194b8a54b9a2a68f8e7, type: 2}
    - target: {fileID: 2358634, guid: b2b9e8d80456b094e9e1503ce66cb26f, type: 2}
      propertyPath: m_Materials.Array.data[0]
      value: 
      objectReference: {fileID: 2100000, guid: 4858261b0b529194b8a54b9a2a68f8e7, type: 2}
    - target: {fileID: 2329502, guid: b2b9e8d80456b094e9e1503ce66cb26f, type: 2}
      propertyPath: m_Materials.Array.data[0]
      value: 
      objectReference: {fileID: 2100000, guid: 4858261b0b529194b8a54b9a2a68f8e7, type: 2}
    - target: {fileID: 2328186, guid: b2b9e8d80456b094e9e1503ce66cb26f, type: 2}
      propertyPath: m_Materials.Array.data[0]
      value: 
      objectReference: {fileID: 2100000, guid: 4858261b0b529194b8a54b9a2a68f8e7, type: 2}
    - target: {fileID: 2397456, guid: b2b9e8d80456b094e9e1503ce66cb26f, type: 2}
      propertyPath: m_Materials.Array.data[0]
      value: 
      objectReference: {fileID: 2100000, guid: 4858261b0b529194b8a54b9a2a68f8e7, type: 2}
    - target: {fileID: 2350166, guid: b2b9e8d80456b094e9e1503ce66cb26f, type: 2}
      propertyPath: m_Materials.Array.data[0]
      value: 
      objectReference: {fileID: 2100000, guid: 4858261b0b529194b8a54b9a2a68f8e7, type: 2}
    - target: {fileID: 2385860, guid: b2b9e8d80456b094e9e1503ce66cb26f, type: 2}
      propertyPath: m_Materials.Array.data[0]
      value: 
      objectReference: {fileID: 2100000, guid: 4858261b0b529194b8a54b9a2a68f8e7, type: 2}
    - target: {fileID: 2333592, guid: b2b9e8d80456b094e9e1503ce66cb26f, type: 2}
      propertyPath: m_Materials.Array.data[0]
      value: 
      objectReference: {fileID: 2100000, guid: 4858261b0b529194b8a54b9a2a68f8e7, type: 2}
    - target: {fileID: 2356838, guid: b2b9e8d80456b094e9e1503ce66cb26f, type: 2}
      propertyPath: m_Materials.Array.data[0]
      value: 
      objectReference: {fileID: 2100000, guid: 4858261b0b529194b8a54b9a2a68f8e7, type: 2}
    - target: {fileID: 2389574, guid: b2b9e8d80456b094e9e1503ce66cb26f, type: 2}
      propertyPath: m_Materials.Array.data[0]
      value: 
      objectReference: {fileID: 2100000, guid: 4858261b0b529194b8a54b9a2a68f8e7, type: 2}
    - target: {fileID: 2351774, guid: b2b9e8d80456b094e9e1503ce66cb26f, type: 2}
      propertyPath: m_Materials.Array.data[0]
      value: 
      objectReference: {fileID: 2100000, guid: 4858261b0b529194b8a54b9a2a68f8e7, type: 2}
    - target: {fileID: 2365492, guid: b2b9e8d80456b094e9e1503ce66cb26f, type: 2}
      propertyPath: m_Materials.Array.data[0]
      value: 
      objectReference: {fileID: 2100000, guid: 4858261b0b529194b8a54b9a2a68f8e7, type: 2}
    - target: {fileID: 2320592, guid: b2b9e8d80456b094e9e1503ce66cb26f, type: 2}
      propertyPath: m_Materials.Array.data[0]
      value: 
      objectReference: {fileID: 2100000, guid: 4858261b0b529194b8a54b9a2a68f8e7, type: 2}
    - target: {fileID: 2361160, guid: b2b9e8d80456b094e9e1503ce66cb26f, type: 2}
      propertyPath: m_Materials.Array.data[0]
      value: 
      objectReference: {fileID: 2100000, guid: 4858261b0b529194b8a54b9a2a68f8e7, type: 2}
    - target: {fileID: 2376850, guid: b2b9e8d80456b094e9e1503ce66cb26f, type: 2}
      propertyPath: m_Materials.Array.data[0]
      value: 
      objectReference: {fileID: 2100000, guid: 4858261b0b529194b8a54b9a2a68f8e7, type: 2}
    - target: {fileID: 2317256, guid: b2b9e8d80456b094e9e1503ce66cb26f, type: 2}
      propertyPath: m_Materials.Array.data[0]
      value: 
      objectReference: {fileID: 2100000, guid: 4858261b0b529194b8a54b9a2a68f8e7, type: 2}
    - target: {fileID: 2377102, guid: b2b9e8d80456b094e9e1503ce66cb26f, type: 2}
      propertyPath: m_Materials.Array.data[0]
      value: 
      objectReference: {fileID: 2100000, guid: 4858261b0b529194b8a54b9a2a68f8e7, type: 2}
    - target: {fileID: 2301600, guid: b2b9e8d80456b094e9e1503ce66cb26f, type: 2}
      propertyPath: m_Materials.Array.data[0]
      value: 
      objectReference: {fileID: 2100000, guid: 4858261b0b529194b8a54b9a2a68f8e7, type: 2}
    - target: {fileID: 2397934, guid: b2b9e8d80456b094e9e1503ce66cb26f, type: 2}
      propertyPath: m_Materials.Array.data[0]
      value: 
      objectReference: {fileID: 2100000, guid: 4858261b0b529194b8a54b9a2a68f8e7, type: 2}
    - target: {fileID: 2306358, guid: b2b9e8d80456b094e9e1503ce66cb26f, type: 2}
      propertyPath: m_Materials.Array.data[0]
      value: 
      objectReference: {fileID: 2100000, guid: 4858261b0b529194b8a54b9a2a68f8e7, type: 2}
    - target: {fileID: 2373438, guid: b2b9e8d80456b094e9e1503ce66cb26f, type: 2}
      propertyPath: m_Materials.Array.data[0]
      value: 
      objectReference: {fileID: 2100000, guid: 4858261b0b529194b8a54b9a2a68f8e7, type: 2}
    - target: {fileID: 2332670, guid: b2b9e8d80456b094e9e1503ce66cb26f, type: 2}
      propertyPath: m_Materials.Array.data[0]
      value: 
      objectReference: {fileID: 2100000, guid: 4858261b0b529194b8a54b9a2a68f8e7, type: 2}
    - target: {fileID: 2328500, guid: b2b9e8d80456b094e9e1503ce66cb26f, type: 2}
      propertyPath: m_Materials.Array.data[0]
      value: 
      objectReference: {fileID: 2100000, guid: 4858261b0b529194b8a54b9a2a68f8e7, type: 2}
    - target: {fileID: 2301212, guid: b2b9e8d80456b094e9e1503ce66cb26f, type: 2}
      propertyPath: m_Materials.Array.data[0]
      value: 
      objectReference: {fileID: 2100000, guid: 4858261b0b529194b8a54b9a2a68f8e7, type: 2}
    - target: {fileID: 2321390, guid: b2b9e8d80456b094e9e1503ce66cb26f, type: 2}
      propertyPath: m_Materials.Array.data[0]
      value: 
      objectReference: {fileID: 2100000, guid: 4858261b0b529194b8a54b9a2a68f8e7, type: 2}
    - target: {fileID: 2370714, guid: b2b9e8d80456b094e9e1503ce66cb26f, type: 2}
      propertyPath: m_Materials.Array.data[0]
      value: 
      objectReference: {fileID: 2100000, guid: 4858261b0b529194b8a54b9a2a68f8e7, type: 2}
    - target: {fileID: 2398726, guid: b2b9e8d80456b094e9e1503ce66cb26f, type: 2}
      propertyPath: m_Materials.Array.data[0]
      value: 
      objectReference: {fileID: 2100000, guid: 4858261b0b529194b8a54b9a2a68f8e7, type: 2}
    - target: {fileID: 2364774, guid: b2b9e8d80456b094e9e1503ce66cb26f, type: 2}
      propertyPath: m_Materials.Array.data[0]
      value: 
      objectReference: {fileID: 2100000, guid: 4858261b0b529194b8a54b9a2a68f8e7, type: 2}
    - target: {fileID: 2343044, guid: b2b9e8d80456b094e9e1503ce66cb26f, type: 2}
      propertyPath: m_Materials.Array.data[0]
      value: 
      objectReference: {fileID: 2100000, guid: 4858261b0b529194b8a54b9a2a68f8e7, type: 2}
    - target: {fileID: 2310708, guid: b2b9e8d80456b094e9e1503ce66cb26f, type: 2}
      propertyPath: m_Materials.Array.data[0]
      value: 
      objectReference: {fileID: 2100000, guid: 4858261b0b529194b8a54b9a2a68f8e7, type: 2}
    - target: {fileID: 2304714, guid: b2b9e8d80456b094e9e1503ce66cb26f, type: 2}
      propertyPath: m_Materials.Array.data[0]
      value: 
      objectReference: {fileID: 2100000, guid: 4858261b0b529194b8a54b9a2a68f8e7, type: 2}
    - target: {fileID: 2374158, guid: b2b9e8d80456b094e9e1503ce66cb26f, type: 2}
      propertyPath: m_Materials.Array.data[0]
      value: 
      objectReference: {fileID: 2100000, guid: 4858261b0b529194b8a54b9a2a68f8e7, type: 2}
    - target: {fileID: 2387548, guid: b2b9e8d80456b094e9e1503ce66cb26f, type: 2}
      propertyPath: m_Materials.Array.data[0]
      value: 
      objectReference: {fileID: 2100000, guid: 4858261b0b529194b8a54b9a2a68f8e7, type: 2}
    - target: {fileID: 124334, guid: b2b9e8d80456b094e9e1503ce66cb26f, type: 2}
      propertyPath: m_Name
      value: Breaking
      objectReference: {fileID: 0}
    - target: {fileID: 140272, guid: b2b9e8d80456b094e9e1503ce66cb26f, type: 2}
      propertyPath: m_Name
      value: Breaking
      objectReference: {fileID: 0}
    - target: {fileID: 2342760, guid: b2b9e8d80456b094e9e1503ce66cb26f, type: 2}
      propertyPath: m_Materials.Array.data[0]
      value: 
      objectReference: {fileID: 2100000, guid: 0792fd4ace69fef4f96bb487416d91f1, type: 2}
    m_RemovedComponents: []
  m_ParentPrefab: {fileID: 100100000, guid: b2b9e8d80456b094e9e1503ce66cb26f, type: 2}
  m_IsPrefabParent: 0
--- !u!1001 &1567522581
Prefab:
  m_ObjectHideFlags: 0
  serializedVersion: 2
  m_Modification:
    m_TransformParent: {fileID: 0}
    m_Modifications:
    - target: {fileID: 434858, guid: 3271e9352f365764d8133a053bef79ec, type: 2}
      propertyPath: m_LocalPosition.x
      value: 72
      objectReference: {fileID: 0}
    - target: {fileID: 434858, guid: 3271e9352f365764d8133a053bef79ec, type: 2}
      propertyPath: m_LocalPosition.y
      value: -76
      objectReference: {fileID: 0}
    - target: {fileID: 434858, guid: 3271e9352f365764d8133a053bef79ec, type: 2}
      propertyPath: m_LocalPosition.z
      value: 0
      objectReference: {fileID: 0}
    - target: {fileID: 434858, guid: 3271e9352f365764d8133a053bef79ec, type: 2}
      propertyPath: m_LocalRotation.x
      value: 0
      objectReference: {fileID: 0}
    - target: {fileID: 434858, guid: 3271e9352f365764d8133a053bef79ec, type: 2}
      propertyPath: m_LocalRotation.y
      value: 0
      objectReference: {fileID: 0}
    - target: {fileID: 434858, guid: 3271e9352f365764d8133a053bef79ec, type: 2}
      propertyPath: m_LocalRotation.z
      value: 0
      objectReference: {fileID: 0}
    - target: {fileID: 434858, guid: 3271e9352f365764d8133a053bef79ec, type: 2}
      propertyPath: m_LocalRotation.w
      value: 1
      objectReference: {fileID: 0}
    - target: {fileID: 434858, guid: 3271e9352f365764d8133a053bef79ec, type: 2}
      propertyPath: m_RootOrder
      value: 5
      objectReference: {fileID: 0}
    - target: {fileID: 123130, guid: 3271e9352f365764d8133a053bef79ec, type: 2}
      propertyPath: m_Name
      value: Hard chunks
      objectReference: {fileID: 0}
    - target: {fileID: 123130, guid: 3271e9352f365764d8133a053bef79ec, type: 2}
      propertyPath: m_IsActive
      value: 0
      objectReference: {fileID: 0}
    m_RemovedComponents: []
  m_ParentPrefab: {fileID: 100100000, guid: 3271e9352f365764d8133a053bef79ec, type: 2}
  m_IsPrefabParent: 0
--- !u!1001 &1871893591
Prefab:
  m_ObjectHideFlags: 0
  serializedVersion: 2
  m_Modification:
    m_TransformParent: {fileID: 0}
    m_Modifications:
    - target: {fileID: 479644, guid: 1a87a6dbce1f1ae4ba9ce6cf1962096c, type: 2}
      propertyPath: m_LocalPosition.x
      value: 72
      objectReference: {fileID: 0}
    - target: {fileID: 479644, guid: 1a87a6dbce1f1ae4ba9ce6cf1962096c, type: 2}
      propertyPath: m_LocalPosition.y
      value: -87
      objectReference: {fileID: 0}
    - target: {fileID: 479644, guid: 1a87a6dbce1f1ae4ba9ce6cf1962096c, type: 2}
      propertyPath: m_LocalPosition.z
      value: 0
      objectReference: {fileID: 0}
    - target: {fileID: 479644, guid: 1a87a6dbce1f1ae4ba9ce6cf1962096c, type: 2}
      propertyPath: m_LocalRotation.x
      value: 0
      objectReference: {fileID: 0}
    - target: {fileID: 479644, guid: 1a87a6dbce1f1ae4ba9ce6cf1962096c, type: 2}
      propertyPath: m_LocalRotation.y
      value: 0
      objectReference: {fileID: 0}
    - target: {fileID: 479644, guid: 1a87a6dbce1f1ae4ba9ce6cf1962096c, type: 2}
      propertyPath: m_LocalRotation.z
      value: 0
      objectReference: {fileID: 0}
    - target: {fileID: 479644, guid: 1a87a6dbce1f1ae4ba9ce6cf1962096c, type: 2}
      propertyPath: m_LocalRotation.w
      value: 1
      objectReference: {fileID: 0}
    - target: {fileID: 479644, guid: 1a87a6dbce1f1ae4ba9ce6cf1962096c, type: 2}
      propertyPath: m_RootOrder
      value: 3
      objectReference: {fileID: 0}
    - target: {fileID: 179038, guid: 1a87a6dbce1f1ae4ba9ce6cf1962096c, type: 2}
      propertyPath: m_Name
      value: Hard chunks
      objectReference: {fileID: 0}
    - target: {fileID: 179038, guid: 1a87a6dbce1f1ae4ba9ce6cf1962096c, type: 2}
      propertyPath: m_IsActive
      value: 0
      objectReference: {fileID: 0}
    m_RemovedComponents: []
  m_ParentPrefab: {fileID: 100100000, guid: 1a87a6dbce1f1ae4ba9ce6cf1962096c, type: 2}
  m_IsPrefabParent: 0
--- !u!1001 &2007237617
Prefab:
  m_ObjectHideFlags: 0
  serializedVersion: 2
  m_Modification:
    m_TransformParent: {fileID: 0}
    m_Modifications:
    - target: {fileID: 487418, guid: afd26eaa01192b544a7b2d2608b72d2b, type: 2}
      propertyPath: m_LocalPosition.x
      value: 72
      objectReference: {fileID: 0}
    - target: {fileID: 487418, guid: afd26eaa01192b544a7b2d2608b72d2b, type: 2}
      propertyPath: m_LocalPosition.y
      value: -54
      objectReference: {fileID: 0}
    - target: {fileID: 487418, guid: afd26eaa01192b544a7b2d2608b72d2b, type: 2}
      propertyPath: m_LocalPosition.z
      value: 0
      objectReference: {fileID: 0}
    - target: {fileID: 487418, guid: afd26eaa01192b544a7b2d2608b72d2b, type: 2}
      propertyPath: m_LocalRotation.x
      value: 0
      objectReference: {fileID: 0}
    - target: {fileID: 487418, guid: afd26eaa01192b544a7b2d2608b72d2b, type: 2}
      propertyPath: m_LocalRotation.y
      value: 0
      objectReference: {fileID: 0}
    - target: {fileID: 487418, guid: afd26eaa01192b544a7b2d2608b72d2b, type: 2}
      propertyPath: m_LocalRotation.z
      value: 0
      objectReference: {fileID: 0}
    - target: {fileID: 487418, guid: afd26eaa01192b544a7b2d2608b72d2b, type: 2}
      propertyPath: m_LocalRotation.w
      value: 1
      objectReference: {fileID: 0}
    - target: {fileID: 487418, guid: afd26eaa01192b544a7b2d2608b72d2b, type: 2}
      propertyPath: m_RootOrder
      value: 8
      objectReference: {fileID: 0}
    - target: {fileID: 115698, guid: afd26eaa01192b544a7b2d2608b72d2b, type: 2}
      propertyPath: m_Name
      value: Hard chunks
      objectReference: {fileID: 0}
    - target: {fileID: 115698, guid: afd26eaa01192b544a7b2d2608b72d2b, type: 2}
      propertyPath: m_IsActive
      value: 0
      objectReference: {fileID: 0}
    m_RemovedComponents: []
  m_ParentPrefab: {fileID: 100100000, guid: afd26eaa01192b544a7b2d2608b72d2b, type: 2}
  m_IsPrefabParent: 0
